# This file uses centimeters as units for non-parametric coordinates.

mtllib rings2.mtl
g default
v 0.269077 -0.000000 -0.155352
v 0.155352 -0.000000 -0.269077
v 0.000000 -0.000000 -0.310703
v -0.155352 -0.000000 -0.269077
v -0.269077 -0.000000 -0.155352
v -0.310703 -0.000000 0.000000
v -0.269077 -0.000000 0.155352
v -0.155352 -0.000000 0.269077
v 0.000000 -0.000000 0.310703
v 0.155352 -0.000000 0.269077
v 0.269077 -0.000000 0.155352
v 0.310703 -0.000000 0.000000
v 0.369413 0.100414 -0.213281
v 0.213281 0.100414 -0.369413
v 0.000000 0.100414 -0.426562
v -0.213281 0.100414 -0.369413
v -0.369413 0.100414 -0.213281
v -0.426562 0.100414 0.000000
v -0.369413 0.100414 0.213281
v -0.213281 0.100414 0.369413
v 0.000000 0.100414 0.426562
v 0.213281 0.100414 0.369413
v 0.369413 0.100414 0.213281
v 0.426562 0.100414 0.000000
v 0.369413 -0.100414 -0.213281
v 0.213281 -0.100414 -0.369413
v 0.000000 -0.100414 -0.426562
v -0.213281 -0.100414 -0.369413
v -0.369413 -0.100414 -0.213281
v -0.426562 -0.100414 0.000000
v -0.369413 -0.100414 0.213281
v -0.213281 -0.100414 0.369413
v 0.000000 -0.100414 0.426562
v 0.213281 -0.100414 0.369413
v 0.369413 -0.100414 0.213281
v 0.426562 -0.100414 0.000000
v 0.357602 -0.075687 0.000000
v 0.309693 -0.075687 0.178801
v 0.178801 -0.075687 0.309693
v 0.000000 -0.075687 0.357602
v -0.178801 -0.075687 0.309693
v -0.309693 -0.075687 0.178801
v -0.357602 -0.075687 0.000000
v -0.309693 -0.075687 -0.178801
v -0.178801 -0.075687 -0.309693
v 0.000000 -0.075687 -0.357602
v 0.178801 -0.075687 -0.309693
v 0.309693 -0.075687 -0.178801
v 0.446928 -0.000000 0.000000
v 0.387051 -0.000000 0.223464
v 0.223464 -0.000000 0.387051
v 0.000000 -0.000000 0.446928
v -0.223464 -0.000000 0.387051
v -0.387051 -0.000000 0.223464
v -0.446928 -0.000000 0.000000
v -0.387051 -0.000000 -0.223464
v -0.223464 -0.000000 -0.387051
v 0.000000 -0.000000 -0.446928
v 0.223464 -0.000000 -0.387051
v 0.387051 -0.000000 -0.223464
v 0.357602 0.075687 0.000000
v 0.309693 0.075687 0.178801
v 0.178801 0.075687 0.309693
v 0.000000 0.075687 0.357602
v -0.178801 0.075687 0.309693
v -0.309693 0.075687 0.178801
v -0.357602 0.075687 0.000000
v -0.309693 0.075687 -0.178801
v -0.178801 0.075687 -0.309693
v 0.000000 0.075687 -0.357602
v 0.178801 0.075687 -0.309693
v 0.309693 0.075687 -0.178801
v 0.411613 -0.100337 -0.110291
v 0.411613 -0.100337 0.110291
v 0.301321 -0.100337 0.301321
v 0.110291 -0.100337 0.411613
v -0.110291 -0.100337 0.411613
v -0.301321 -0.100337 0.301321
v -0.411613 -0.100337 0.110291
v -0.411613 -0.100337 -0.110291
v -0.301321 -0.100337 -0.301321
v -0.110291 -0.100337 -0.411613
v 0.110291 -0.100337 -0.411613
v 0.301321 -0.100337 -0.301321
v 0.411613 0.100337 -0.110291
v 0.411613 0.100337 0.110291
v 0.301321 0.100337 0.301321
v 0.110291 0.100337 0.411613
v -0.110291 0.100337 0.411613
v -0.301321 0.100337 0.301321
v -0.411613 0.100337 0.110291
v -0.411613 0.100337 -0.110291
v -0.301321 0.100337 -0.301321
v -0.110291 0.100337 -0.411613
v 0.110291 0.100337 -0.411613
v 0.301321 0.100337 -0.301321
v 0.300139 -0.000000 -0.080422
v 0.300139 -0.000000 0.080422
v 0.219717 -0.000000 0.219717
v 0.080422 -0.000000 0.300139
v -0.080422 -0.000000 0.300139
v -0.219717 -0.000000 0.219717
v -0.300139 -0.000000 0.080422
v -0.300139 -0.000000 -0.080422
v -0.219717 -0.000000 -0.219717
v -0.080422 -0.000000 -0.300139
v 0.080422 -0.000000 -0.300139
v 0.219717 -0.000000 -0.219717
v 0.345210 -0.075686 -0.092499
v 0.345210 -0.075686 0.092499
v 0.252711 -0.075686 0.252711
v 0.092499 -0.075686 0.345210
v -0.092499 -0.075686 0.345210
v -0.252711 -0.075686 0.252711
v -0.345210 -0.075686 0.092499
v -0.345210 -0.075686 -0.092499
v -0.252711 -0.075686 -0.252711
v -0.092499 -0.075686 -0.345210
v 0.092499 -0.075686 -0.345210
v 0.252711 -0.075686 -0.252711
v 0.431218 -0.000000 -0.115544
v 0.431218 -0.000000 0.115544
v 0.315673 -0.000000 0.315673
v 0.115544 -0.000000 0.431218
v -0.115544 -0.000000 0.431218
v -0.315673 -0.000000 0.315673
v -0.431218 -0.000000 0.115544
v -0.431218 -0.000000 -0.115544
v -0.315673 -0.000000 -0.315673
v -0.115544 -0.000000 -0.431218
v 0.115544 -0.000000 -0.431218
v 0.315673 -0.000000 -0.315673
v 0.345210 0.075686 -0.092499
v 0.345210 0.075686 0.092499
v 0.252711 0.075686 0.252711
v 0.092499 0.075686 0.345210
v -0.092499 0.075686 0.345210
v -0.252711 0.075686 0.252711
v -0.345210 0.075686 0.092499
v -0.345210 0.075686 -0.092499
v -0.252711 0.075686 -0.252711
v -0.092499 0.075686 -0.345210
v 0.092499 0.075686 -0.345210
v 0.252711 0.075686 -0.252711
vt 0.580901 0.640124
vt 0.613983 0.613983
vt 0.651842 0.651842
vt 0.607442 0.686095
vt 0.500000 0.661802
vt 0.541721 0.655704
vt 0.555578 0.707420
vt 0.500000 0.714883
vt 0.419099 0.640124
vt 0.458280 0.655704
vt 0.444422 0.707420
vt 0.392559 0.686094
vt 0.359876 0.580901
vt 0.386017 0.613983
vt 0.348158 0.651842
vt 0.313906 0.607442
vt 0.338199 0.500000
vt 0.344297 0.541721
vt 0.292580 0.555578
vt 0.285117 0.500000
vt 0.359876 0.419099
vt 0.344297 0.458280
vt 0.292580 0.444422
vt 0.313906 0.392559
vt 0.419099 0.359876
vt 0.386017 0.386017
vt 0.348158 0.348158
vt 0.392559 0.313906
vt 0.500000 0.338198
vt 0.458280 0.344297
vt 0.444422 0.292580
vt 0.500000 0.285117
vt 0.580901 0.359876
vt 0.541721 0.344296
vt 0.555578 0.292580
vt 0.607442 0.313906
vt 0.640124 0.419099
vt 0.613983 0.386017
vt 0.651842 0.348158
vt 0.686095 0.392559
vt 0.661802 0.500000
vt 0.655704 0.458279
vt 0.707420 0.444422
vt 0.714884 0.500000
vt 0.640124 0.580901
vt 0.655704 0.541721
vt 0.707420 0.555578
vt 0.686095 0.607442
vt 0.630598 0.726202
vt 0.684740 0.684739
vt 0.728972 0.728972
vt 0.661168 0.779151
vt 0.500000 0.761195
vt 0.567619 0.752359
vt 0.583810 0.812782
vt 0.500000 0.822336
vt 0.369403 0.726202
vt 0.432381 0.752359
vt 0.416190 0.812782
vt 0.338832 0.779151
vt 0.273798 0.630598
vt 0.315261 0.684739
vt 0.271028 0.728972
vt 0.220849 0.661168
vt 0.238805 0.500000
vt 0.247642 0.567619
vt 0.187218 0.583810
vt 0.177665 0.500000
vt 0.273798 0.369403
vt 0.247642 0.432381
vt 0.187218 0.416191
vt 0.220849 0.338832
vt 0.369403 0.273798
vt 0.315261 0.315261
vt 0.271028 0.271028
vt 0.338832 0.220849
vt 0.500000 0.238805
vt 0.432381 0.247642
vt 0.416191 0.187218
vt 0.500000 0.177664
vt 0.630598 0.273798
vt 0.567619 0.247642
vt 0.583810 0.187218
vt 0.661168 0.220849
vt 0.726202 0.369403
vt 0.684739 0.315261
vt 0.728972 0.271028
vt 0.779151 0.338832
vt 0.761195 0.500000
vt 0.752359 0.432381
vt 0.812782 0.416190
vt 0.822336 0.500000
vt 0.726202 0.630598
vt 0.752359 0.567620
vt 0.812782 0.583810
vt 0.779151 0.661168
vt 0.695660 0.838894
vt 0.777633 0.777633
vt 0.580525 0.580525
vt 0.726219 0.891824
vt 0.500000 0.891321
vt 0.601621 0.879253
vt 0.529474 0.609998
vt 0.500000 0.952439
vt 0.304340 0.838894
vt 0.398380 0.879253
vt 0.470526 0.609999
vt 0.273781 0.891823
vt 0.161106 0.695660
vt 0.222367 0.777633
vt 0.419476 0.580525
vt 0.108177 0.726219
vt 0.108679 0.500000
vt 0.120747 0.601621
vt 0.390002 0.529474
vt 0.047562 0.500000
vt 0.161106 0.304340
vt 0.120747 0.398379
vt 0.390002 0.470526
vt 0.108177 0.273781
vt 0.304340 0.161106
vt 0.222367 0.222367
vt 0.419476 0.419476
vt 0.273781 0.108177
vt 0.500000 0.108679
vt 0.398380 0.120747
vt 0.470526 0.390002
vt 0.500000 0.047562
vt 0.695660 0.161106
vt 0.601621 0.120747
vt 0.529474 0.390002
vt 0.726219 0.108177
vt 0.838894 0.304340
vt 0.777633 0.222367
vt 0.580525 0.419476
vt 0.891824 0.273781
vt 0.891320 0.500000
vt 0.879253 0.398380
vt 0.609999 0.470526
vt 0.952439 0.500000
vt 0.838894 0.695660
vt 0.879254 0.601621
vt 0.609999 0.529474
vt 0.598719 0.556996
vt 0.818527 0.818527
vt 0.556996 0.598720
vt 0.891824 0.726220
vt 0.616589 0.935116
vt 0.500000 0.613992
vt 0.383411 0.935116
vt 0.443005 0.598720
vt 0.181473 0.818527
vt 0.401281 0.556996
vt 0.064885 0.616589
vt 0.386009 0.500000
vt 0.064885 0.383411
vt 0.401281 0.443005
vt 0.181473 0.181473
vt 0.443005 0.401281
vt 0.383411 0.064885
vt 0.500000 0.386009
vt 0.616589 0.064885
vt 0.556996 0.401281
vt 0.818527 0.181473
vt 0.598720 0.443005
vt 0.935116 0.383411
vt 0.613991 0.500000
vt 0.935116 0.616589
vn -0.500000 0.000000 0.866025
vn -0.707107 0.000000 0.707107
vn -0.435766 0.787539 0.435765
vn -0.307731 0.788166 0.533006
vn 0.000000 -0.000000 1.000000
vn -0.258819 0.000000 0.965926
vn -0.159501 0.787538 0.595267
vn 0.000000 0.788166 0.615462
vn 0.500000 -0.000000 0.866025
vn 0.258819 -0.000000 0.965926
vn 0.159501 0.787538 0.595267
vn 0.307731 0.788166 0.533006
vn 0.866025 0.000000 0.500000
vn 0.707107 -0.000000 0.707107
vn 0.435765 0.787539 0.435765
vn 0.533006 0.788166 0.307731
vn 1.000000 -0.000000 -0.000000
vn 0.965926 -0.000000 0.258819
vn 0.595267 0.787539 0.159501
vn 0.615462 0.788166 -0.000000
vn 0.866025 -0.000000 -0.500000
vn 0.965926 -0.000000 -0.258819
vn 0.595267 0.787539 -0.159501
vn 0.533006 0.788166 -0.307731
vn 0.500000 0.000000 -0.866025
vn 0.707107 -0.000000 -0.707107
vn 0.435766 0.787539 -0.435765
vn 0.307731 0.788166 -0.533006
vn -0.000000 -0.000000 -1.000000
vn 0.258819 0.000000 -0.965926
vn 0.159501 0.787538 -0.595267
vn -0.000000 0.788166 -0.615462
vn -0.500000 -0.000000 -0.866025
vn -0.258819 -0.000000 -0.965926
vn -0.159501 0.787538 -0.595267
vn -0.307731 0.788166 -0.533006
vn -0.866025 0.000000 -0.500000
vn -0.707107 -0.000000 -0.707107
vn -0.435765 0.787539 -0.435765
vn -0.533006 0.788166 -0.307731
vn -1.000000 -0.000000 0.000000
vn -0.965926 -0.000000 -0.258819
vn -0.595267 0.787539 -0.159501
vn -0.615462 0.788166 0.000000
vn -0.866025 -0.000000 0.500000
vn -0.965926 -0.000000 0.258819
vn -0.595267 0.787539 0.159501
vn -0.533006 0.788166 0.307731
vn 0.364275 0.684992 -0.630944
vn 0.514005 0.686730 -0.514005
vn 0.707107 0.000000 -0.707107
vn 0.500000 -0.000000 -0.866025
vn 0.000000 0.684992 -0.728551
vn 0.188139 0.686730 -0.702144
vn 0.258819 -0.000000 -0.965926
vn -0.000000 0.000000 -1.000000
vn -0.364275 0.684992 -0.630944
vn -0.188139 0.686730 -0.702144
vn -0.258819 0.000000 -0.965926
vn -0.500000 0.000000 -0.866026
vn -0.630944 0.684992 -0.364276
vn -0.514005 0.686730 -0.514005
vn -0.707107 0.000000 -0.707107
vn -0.866025 -0.000000 -0.500000
vn -0.728551 0.684992 0.000000
vn -0.702144 0.686730 -0.188139
vn -0.965926 0.000000 -0.258819
vn -1.000000 -0.000000 0.000000
vn -0.630944 0.684992 0.364276
vn -0.702144 0.686730 0.188139
vn -0.965926 0.000000 0.258819
vn -0.866025 0.000000 0.500000
vn -0.364275 0.684992 0.630944
vn -0.514005 0.686730 0.514005
vn -0.707107 0.000000 0.707107
vn -0.500000 -0.000000 0.866025
vn -0.000000 0.684992 0.728551
vn -0.188139 0.686730 0.702144
vn -0.258819 -0.000000 0.965926
vn 0.000000 0.000000 1.000000
vn 0.364275 0.684992 0.630944
vn 0.188139 0.686730 0.702144
vn 0.258819 0.000000 0.965926
vn 0.500000 0.000000 0.866026
vn 0.630944 0.684992 0.364276
vn 0.514005 0.686730 0.514005
vn 0.707107 0.000000 0.707107
vn 0.866025 -0.000000 0.500000
vn 0.728551 0.684992 0.000000
vn 0.702144 0.686730 0.188139
vn 0.965926 0.000000 0.258819
vn 1.000000 -0.000000 0.000000
vn 0.630944 0.684992 -0.364276
vn 0.702144 0.686730 -0.188139
vn 0.965926 0.000000 -0.258819
vn 0.866025 0.000000 -0.500000
vn 0.364276 -0.684992 -0.630944
vn 0.514005 -0.686729 -0.514005
vn -0.435766 -0.787539 0.435765
vn -0.307731 -0.788166 0.533006
vn -0.000000 -0.684992 -0.728551
vn 0.188139 -0.686730 -0.702144
vn -0.159501 -0.787538 0.595267
vn 0.000000 -0.788166 0.615463
vn -0.364276 -0.684991 -0.630944
vn -0.188139 -0.686730 -0.702144
vn 0.159501 -0.787538 0.595267
vn 0.307731 -0.788166 0.533006
vn -0.630944 -0.684992 -0.364275
vn -0.514005 -0.686729 -0.514005
vn 0.435766 -0.787539 0.435765
vn 0.533006 -0.788166 0.307731
vn -0.728551 -0.684992 0.000000
vn -0.702144 -0.686730 -0.188139
vn 0.595267 -0.787538 0.159501
vn 0.615462 -0.788166 -0.000000
vn -0.630944 -0.684992 0.364276
vn -0.702144 -0.686730 0.188139
vn 0.595267 -0.787539 -0.159501
vn 0.533006 -0.788166 -0.307731
vn -0.364276 -0.684992 0.630944
vn -0.514005 -0.686729 0.514005
vn 0.435766 -0.787539 -0.435765
vn 0.307731 -0.788166 -0.533006
vn 0.000000 -0.684992 0.728551
vn -0.188139 -0.686730 0.702144
vn 0.159501 -0.787538 -0.595267
vn -0.000000 -0.788166 -0.615463
vn 0.364276 -0.684991 0.630944
vn 0.188139 -0.686730 0.702144
vn -0.159501 -0.787538 -0.595267
vn -0.307731 -0.788166 -0.533006
vn 0.630944 -0.684992 0.364275
vn 0.514005 -0.686729 0.514005
vn -0.435766 -0.787539 -0.435765
vn -0.533006 -0.788166 -0.307731
vn 0.728551 -0.684992 0.000000
vn 0.702144 -0.686730 0.188139
vn -0.595267 -0.787538 -0.159501
vn -0.615462 -0.788166 0.000000
vn 0.630944 -0.684992 -0.364276
vn 0.702144 -0.686730 -0.188139
vn -0.595267 -0.787539 0.159501
vn -0.533006 -0.788166 0.307731
s 1
g pTorus1
usemtl initialShadingGroup
f 2/1/1 108/2/2 144/3/3 71/4/4
f 3/5/5 107/6/6 143/7/7 70/8/8
f 4/9/9 106/10/10 142/11/11 69/12/12
f 5/13/13 105/14/14 141/15/15 68/16/16
f 6/17/17 104/18/18 140/19/19 67/20/20
f 7/21/21 103/22/22 139/23/23 66/24/24
f 8/25/25 102/26/26 138/27/27 65/28/28
f 9/29/29 101/30/30 137/31/31 64/32/32
f 10/33/33 100/34/34 136/35/35 63/36/36
f 11/37/37 99/38/38 135/39/39 62/40/40
f 12/41/41 98/42/42 134/43/43 61/44/44
f 1/45/45 97/46/46 133/47/47 72/48/48
f 14/49/49 96/50/50 132/51/51 59/52/52
f 15/53/53 95/54/54 131/55/55 58/56/56
f 16/57/57 94/58/58 130/59/59 57/60/60
f 17/61/61 93/62/62 129/63/63 56/64/64
f 18/65/65 92/66/66 128/67/67 55/68/68
f 19/69/69 91/70/70 127/71/71 54/72/72
f 20/73/73 90/74/74 126/75/75 53/76/76
f 21/77/77 89/78/78 125/79/79 52/80/80
f 22/81/81 88/82/82 124/83/83 51/84/84
f 23/85/85 87/86/86 123/87/87 50/88/88
f 24/89/89 86/90/90 122/91/91 49/92/92
f 13/93/93 85/94/94 121/95/95 60/96/96
f 26/97/97 84/98/98 120/145/99 47/100/100
f 27/101/101 83/102/102 119/148/103 46/104/104
f 28/105/105 82/106/106 118/150/107 45/108/108
f 29/109/109 81/110/110 117/152/111 44/112/112
f 30/113/113 80/114/114 116/154/115 43/116/116
f 31/117/117 79/118/118 115/156/119 42/120/120
f 32/121/121 78/122/122 114/158/123 41/124/124
f 33/125/125 77/126/126 113/160/127 40/128/128
f 34/129/129 76/130/130 112/162/131 39/132/132
f 35/133/133 75/134/134 111/164/135 38/136/136
f 36/137/137 74/138/138 110/166/139 37/140/140
f 25/141/141 73/142/142 109/168/143 48/147/144
f 97/46/46 109/143/143 37/167/140 12/41/41
f 37/140/140 109/168/143 73/142/142 36/137/137
f 48/144/144 109/143/143 97/46/46 1/45/45
f 98/42/42 110/139/139 38/165/136 11/37/37
f 38/136/136 110/166/139 74/138/138 35/133/133
f 37/167/140 110/139/139 98/42/42 12/41/41
f 99/38/38 111/135/135 39/163/132 10/33/33
f 39/132/132 111/164/135 75/134/134 34/129/129
f 38/165/136 111/135/135 99/38/38 11/37/37
f 100/34/34 112/131/131 40/161/128 9/29/29
f 40/128/128 112/162/131 76/130/130 33/125/125
f 39/163/132 112/131/131 100/34/34 10/33/33
f 101/30/30 113/127/127 41/159/124 8/25/25
f 41/124/124 113/160/127 77/126/126 32/121/121
f 40/161/128 113/127/127 101/30/30 9/29/29
f 102/26/26 114/123/123 42/157/120 7/21/21
f 42/120/120 114/158/123 78/122/122 31/117/117
f 41/159/124 114/123/123 102/26/26 8/25/25
f 103/22/22 115/119/119 43/155/116 6/17/17
f 43/116/116 115/156/119 79/118/118 30/113/113
f 42/157/120 115/119/119 103/22/22 7/21/21
f 104/18/18 116/115/115 44/153/112 5/13/13
f 44/112/112 116/154/115 80/114/114 29/109/109
f 43/155/116 116/115/115 104/18/18 6/17/17
f 105/14/14 117/111/111 45/151/108 4/9/9
f 45/108/108 117/152/111 81/110/110 28/105/105
f 44/153/112 117/111/111 105/14/14 5/13/13
f 106/10/10 118/107/107 46/149/104 3/5/5
f 46/104/104 118/150/107 82/106/106 27/101/101
f 45/151/108 118/107/107 106/10/10 4/9/9
f 107/6/6 119/103/103 47/146/100 2/1/1
f 47/100/100 119/148/103 83/102/102 26/97/97
f 46/149/104 119/103/103 107/6/6 3/5/5
f 108/2/2 120/99/99 48/144/144 1/45/45
f 48/147/144 120/145/99 84/98/98 25/141/141
f 47/146/100 120/99/99 108/2/2 2/1/1
f 73/142/142 121/95/95 49/92/92 36/137/137
f 49/92/92 121/95/95 85/94/94 24/89/89
f 60/96/96 121/95/95 73/142/142 25/141/141
f 74/138/138 122/91/91 50/88/88 35/133/133
f 50/88/88 122/91/91 86/90/90 23/85/85
f 49/92/92 122/91/91 74/138/138 36/137/137
f 75/134/134 123/87/87 51/84/84 34/129/129
f 51/84/84 123/87/87 87/86/86 22/81/81
f 50/88/88 123/87/87 75/134/134 35/133/133
f 76/130/130 124/83/83 52/80/80 33/125/125
f 52/80/80 124/83/83 88/82/82 21/77/77
f 51/84/84 124/83/83 76/130/130 34/129/129
f 77/126/126 125/79/79 53/76/76 32/121/121
f 53/76/76 125/79/79 89/78/78 20/73/73
f 52/80/80 125/79/79 77/126/126 33/125/125
f 78/122/122 126/75/75 54/72/72 31/117/117
f 54/72/72 126/75/75 90/74/74 19/69/69
f 53/76/76 126/75/75 78/122/122 32/121/121
f 79/118/118 127/71/71 55/68/68 30/113/113
f 55/68/68 127/71/71 91/70/70 18/65/65
f 54/72/72 127/71/71 79/118/118 31/117/117
f 80/114/114 128/67/67 56/64/64 29/109/109
f 56/64/64 128/67/67 92/66/66 17/61/61
f 55/68/68 128/67/67 80/114/114 30/113/113
f 81/110/110 129/63/63 57/60/60 28/105/105
f 57/60/60 129/63/63 93/62/62 16/57/57
f 56/64/64 129/63/63 81/110/110 29/109/109
f 82/106/106 130/59/59 58/56/56 27/101/101
f 58/56/56 130/59/59 94/58/58 15/53/53
f 57/60/60 130/59/59 82/106/106 28/105/105
f 83/102/102 131/55/55 59/52/52 26/97/97
f 59/52/52 131/55/55 95/54/54 14/49/49
f 58/56/56 131/55/55 83/102/102 27/101/101
f 84/98/98 132/51/51 60/96/96 25/141/141
f 60/96/96 132/51/51 96/50/50 13/93/93
f 59/52/52 132/51/51 84/98/98 26/97/97
f 85/94/94 133/47/47 61/44/44 24/89/89
f 61/44/44 133/47/47 97/46/46 12/41/41
f 72/48/48 133/47/47 85/94/94 13/93/93
f 86/90/90 134/43/43 62/40/40 23/85/85
f 62/40/40 134/43/43 98/42/42 11/37/37
f 61/44/44 134/43/43 86/90/90 24/89/89
f 87/86/86 135/39/39 63/36/36 22/81/81
f 63/36/36 135/39/39 99/38/38 10/33/33
f 62/40/40 135/39/39 87/86/86 23/85/85
f 88/82/82 136/35/35 64/32/32 21/77/77
f 64/32/32 136/35/35 100/34/34 9/29/29
f 63/36/36 136/35/35 88/82/82 22/81/81
f 89/78/78 137/31/31 65/28/28 20/73/73
f 65/28/28 137/31/31 101/30/30 8/25/25
f 64/32/32 137/31/31 89/78/78 21/77/77
f 90/74/74 138/27/27 66/24/24 19/69/69
f 66/24/24 138/27/27 102/26/26 7/21/21
f 65/28/28 138/27/27 90/74/74 20/73/73
f 91/70/70 139/23/23 67/20/20 18/65/65
f 67/20/20 139/23/23 103/22/22 6/17/17
f 66/24/24 139/23/23 91/70/70 19/69/69
f 92/66/66 140/19/19 68/16/16 17/61/61
f 68/16/16 140/19/19 104/18/18 5/13/13
f 67/20/20 140/19/19 92/66/66 18/65/65
f 93/62/62 141/15/15 69/12/12 16/57/57
f 69/12/12 141/15/15 105/14/14 4/9/9
f 68/16/16 141/15/15 93/62/62 17/61/61
f 94/58/58 142/11/11 70/8/8 15/53/53
f 70/8/8 142/11/11 106/10/10 3/5/5
f 69/12/12 142/11/11 94/58/58 16/57/57
f 95/54/54 143/7/7 71/4/4 14/49/49
f 71/4/4 143/7/7 107/6/6 2/1/1
f 70/8/8 143/7/7 95/54/54 15/53/53
f 96/50/50 144/3/3 72/48/48 13/93/93
f 72/48/48 144/3/3 108/2/2 1/45/45
f 71/4/4 144/3/3 96/50/50 14/49/49
